[
    {
        "id": "a60334e9.92ab98",
        "type": "tab",
        "label": "ActiveControl - create task",
        "disabled": false,
        "info": ""
    },
    {
        "id": "3099cf94.d6a4c",
        "type": "create-task",
        "z": "a60334e9.92ab98",
        "name": "",
        "activecontrol": "183dc73a.15a7a9",
        "x": 320,
        "y": 80,
        "wires": [
            [
                "907bfb23.3f0408"
            ]
        ]
    },
    {
        "id": "3185f433.124b8c",
        "type": "inject",
        "z": "a60334e9.92ab98",
        "name": "",
        "props": [
            {
                "p": "payload"
            },
            {
                "p": "topic",
                "vt": "str"
            }
        ],
        "repeat": "",
        "crontab": "",
        "once": false,
        "onceDelay": 0.1,
        "topic": "",
        "payload": "{\"ID\":\"\",\"CAPTION\":\"short description\",\"REFERENCE\":\"requirement\",\"GROUPID\":\"10017100600000000014\",\"TYPEID\":\"\",\"TESTERID\":\"JDOE\",\"PRIORITY\":\"2\",\"PROJECTID\":\"10012012300000012123\",\"LOCKED\":\"\",\"PATH\":\"\",\"STAT_DEPL\":\"\",\"STAT_PLAN\":\"\",\"STAT_DEPL_MAN\":\"\",\"STAT_PLAN_MAN\":\"\",\"OWNER\":\"\",\"TEXT\":\"\",\"CF_500\":\"\",\"CF_501\":\"\",\"CF_502\":\"\",\"CF_503\":\"\",\"CF_504\":\"\",\"CF_505\":\"\",\"CF_506\":\"\",\"CF_507\":\"\",\"CF_508\":\"\",\"CF_509\":\"\",\"CF_510\":\"\",\"CF_511\":\"\",\"CF_512\":\"\",\"CF_513\":\"\",\"CF_514\":\"\",\"CF_515\":\"\",\"CF_516\":\"\",\"CF_517\":\"\",\"CF_518\":\"\",\"CF_519\":\"\",\"CF_520\":\"\",\"CF_521\":\"\",\"CF_522\":\"\",\"CF_523\":\"\",\"CF_524\":\"\",\"CF_525\":\"\",\"CF_526\":\"\",\"CF_527\":\"\",\"CF_528\":\"\",\"CF_529\":\"\",\"CF_530\":\"\",\"CF_531\":\"\",\"CF_532\":\"\",\"CF_533\":\"\",\"CF_534\":\"\",\"CF_535\":\"\",\"CF_536\":\"\",\"CF_537\":\"\",\"CF_538\":\"\",\"CF_539\":\"\",\"CF_540\":\"\",\"CF_541\":\"\",\"CF_542\":\"\",\"CF_543\":\"\",\"CF_544\":\"\",\"CF_545\":\"\",\"CF_546\":\"\",\"CF_547\":\"\",\"CF_548\":\"\",\"CF_549\":\"\",\"CF_550\":\"\",\"description\":\"abc\",\"customFields\":[{\"Id\":\"513\",\"Value\":\"foobar\"}],\"testers\":[{\"Testerid\":\"JDOE\",\"Targetroleid\":\"\",\"Targetid\":\"0\",\"Systemid\":\"\",\"Mandt\":\"\",\"SmtpAddr\":\"\",\"Testername\":\"John Doe\"}]}",
        "payloadType": "json",
        "x": 120,
        "y": 80,
        "wires": [
            [
                "3099cf94.d6a4c"
            ]
        ]
    },
    {
        "id": "907bfb23.3f0408",
        "type": "debug",
        "z": "a60334e9.92ab98",
        "name": "",
        "active": true,
        "tosidebar": true,
        "console": false,
        "tostatus": false,
        "complete": "false",
        "statusVal": "",
        "statusType": "auto",
        "x": 530,
        "y": 80,
        "wires": []
    },
    {
        "id": "183dc73a.15a7a9",
        "type": "ac_config",
        "z": "",
        "name": "createtask server",
        "url": "https://sapserver:44300/sap/bc/srt/rfc/bti/te_task_ws/100/my/endpoint",
        "systemnumber": "01"
    }
]